0.002,1.611469760582729,3.364839934790569,12.626139081058993
0.003,1.6078683429646783,3.3440401737225667,12.417205364072542
0.004,1.6044514114683976,3.324424498758804,12.223069327225318
0.005,1.6011750238546019,3.305718961425569,12.040443187387977
0.006,1.5980129520259985,3.287758799373515,11.86731413713943
0.007,1.594947658385945,3.27043306974938,11.702305573876147
0.008,1.5919665412347712,3.253661532846186,11.544408009279287
0.009000000000000001,1.589060081228288,3.2373832036032795,11.392844681703385
0.010000000000000002,1.5862208172872043,3.2215500071571146,11.246996485453957
0.011,1.5834427333824432,3.2061229684113535,11.10635653558926
0.012,1.5807208682717027,3.191069780232186,10.970500954189925
0.013000000000000001,1.5780510550272884,3.1763631758030213,10.83906917469448
0.014000000000000002,1.5754297403672497,3.161979796570565,10.71175014601419
0.015,1.5728538553036935,3.147899379564061,10.588272360006147
0.016,1.5703207200347822,3.134104158274592,10.46839644985878
0.017,1.5678279724116273,3.1205784108683035,10.351909571709117
0.018000000000000002,1.5653735130753854,3.107308112789458,10.238621056217472
0.019000000000000003,1.5629554626555824,3.094280664943339,10.128358987352058
0.02,1.5605721278754767,3.081484678405369,10.020967467317298
0.021,1.5582219743513697,3.068909800314501,9.916304404835842
0.022000000000000002,1.5559036045038888,3.0565465729544776,9.814239703247218
0.023,1.5536157394284917,3.0443863174465178,9.714653761343023
0.024,1.5513572038717647,3.0324210372021123,9.617436221056469
0.025,1.5491269136723131,3.0206433370219563,9.522484912368755
0.026000000000000002,1.546923865178037,3.0090463547671407,9.429704957406011
0.027000000000000003,1.5447471262635661,2.9976237032257864,9.33900800427491
0.028,1.5425958286546755,2.9863694203243845,9.250311567549163
0.029,1.5404691613288943,2.9752779262220974,9.163538457134251
0.030000000000000002,1.5383663646884005,2.9643439861255385,9.078616280911385
0.031,1.5362867260542907,2.9535626778907207,8.995477009396474
0.032,1.5342295746911012,2.9429293636568907,8.914056592850066
0.033,1.5321942784056564,2.9324396648964877,8.834294623033395
0.034,1.5301802400996654,2.9220894403756574,8.756134033142212
0.035,1.52818689480275,2.911874766607587,8.679520830590539
0.036000000000000004,1.5262137070367257,2.9017919204514544,8.604403858170052
0.037000000000000005,1.5242601684662116,2.8918373635656165,8.530734579853663
0.038,1.5223257957950846,2.8820077284734578,8.45846688807381
0.039,1.520410128882819,2.8722998060319616,8.38755692980229
0.04,1.5185127290451514,2.862710534130787,8.317962949148317
0.041,1.5166331775222088,2.8532369874709533,8.24964514452186
0.042,1.5147710740917133,2.8438763682960957,8.182565538683654
0.043000000000000003,1.512926035810672,2.8346259979655146,8.116687860233611
0.044000000000000004,1.511097695870857,2.825483309274444,8.051977435282716
0.045,1.5092857025553805,2.8164458394391505,7.9884010882179295
0.046,1.5074897182853302,2.807511223675278,7.92592705060836
0.047,1.5057094187468574,2.7986771893070257,7.864524877420028
0.048,1.5039444920903178,2.7899415503525073,7.804165369807974
0.049,1.502194638194102,2.781302202537334,7.744820503841855
0.05,1.5004595679866854,2.7727571186941926,7.686463364596374
0.051000000000000004,1.4987390028211895,2.764304344511143,7.629068085103057
0.052000000000000005,1.4970326738974071,2.755941994595623,7.5726097897162
0.053000000000000005,1.4953403217268286,2.7476682488249056,7.517064541495173
0.054,1.4936616956366884,2.7394813489569194,7.462409293247907
0.055,1.4919965533095016,2.7313795954782427,7.408621841918289
0.056,1.4903446603549322,2.7233613446684783,7.355680786032111
0.057,1.4887057899111682,2.715425006486898,7.30356548594755
0.058,1.4870797222732737,2.707569038893432,7.25225602667828
0.059000000000000004,1.4854662445462459,2.6997919517026703,7.20173317944667
0.060000000000000005,1.4838651503207303,2.6920922981373585,7.151978383736679
0.061,1.4822762393695506,2.684468675672422,7.102973694426849
0.062,1.480699317363386,2.676919723803434,7.05470176800144
0.063,1.4791341956041215,2.6694441218363614,7.007145831714044
0.064,1.4775806907742375,2.6620405873294355,6.960289661130028
0.065,1.476038624701884,2.654707874420271,6.91411754399941
0.066,1.474507824139031,2.6474447722835817,6.868614276000141
0.067,1.4729881205530073,2.6402501036765305,6.823765127021916
0.068,1.4714793499298637,2.6331227235654855,6.779555824111943
0.069,1.469981352588827,2.6260615178282527,6.735972532401252
0.07,1.4684939730070563,2.6190654020270676,6.6930018346216755
0.07100000000000001,1.4670170596539953,2.612133320246858,6.650630723837096
0.07200000000000001,1.4655504648346511,2.605264243994864,6.608846572391799
0.07300000000000001,1.464094044541209,2.5984571711573734,6.56763712654105
0.074,1.4626476583130317,2.5917111250098563,6.526990489355976
0.075,1.461211169100869,2.5850251532770794,6.486895106881677
0.076,1.4597844431439335,2.5783983272399964,6.447339754983384
0.077,1.4583673498473118,2.5718297408865154,6.408313526838495
0.078,1.456959761707649,2.565318510103406,6.369805821035247
0.079,1.4555615540474396,2.558863771906842,6.3318063302417364
0.08,1.4541726051468127,2.5524646837092644,6.294305030411571
0.081,1.4527927959885338,2.5461204226203917,6.25729217049481
0.082,1.4514220102032205,2.539830184780381,6.220758262625004
0.083,1.4500601339798564,2.5335931847232787,6.184694072755268
0.084,1.4487070559804096,2.5274086547690238,6.149090611718021
0.085,1.447362667258316,2.5212758444423917,6.113939126684849
0.08600000000000001,1.4460268611806106,2.5151940199173763,6.079231093004437
0.08700000000000001,1.444699533353501,2.5091624634856067,6.044958206398035
0.08800000000000001,1.4433805815511918,2.5031804730474865,6.011112375493177
0.089,1.4420699056477773,2.4972473616248343,5.977685714677668
0.09,1.4407674075520436,2.4913624568938797,5.944670537256997
0.091,1.4394729911450168,2.485525100737508,5.9120593488993505
0.092,1.4381865622201135,2.479734648815981,5.8798448413534
0.093,1.4369080284257598,2.4739904701545985,5.848019886425001
0.094,1.4356372992103459,2.468291946748224,5.8165775301996785
0.095,1.434374285769401,2.462638473181241,5.78551098749868
0.096,1.433118900994871,2.4570294562623936,5.7548136365569675
0.097,1.4318710594264,2.451464314673762,5.724479013912419
0.098,1.430630677204506,2.445942478633159,5.694500809490954
0.099,1.429397672025569,2.440463389569322,5.664872861907438
0.1,1.428171963098534,2.435026499809275,5.635589153899551
